%YAML 1.1
%TAG !u! tag:unity3d.com,2011:
--- !u!1 &2496075780262929023
GameObject:
  m_ObjectHideFlags: 0
  m_CorrespondingSourceObject: {fileID: 0}
  m_PrefabInstance: {fileID: 0}
  m_PrefabAsset: {fileID: 0}
  serializedVersion: 6
  m_Component:
  - component: {fileID: 2496075780262929022}
  m_Layer: 0
  m_Name: BottomParent
  m_TagString: Ground
  m_Icon: {fileID: 0}
  m_NavMeshLayer: 0
  m_StaticEditorFlags: 0
  m_IsActive: 1
--- !u!4 &2496075780262929022
Transform:
  m_ObjectHideFlags: 0
  m_CorrespondingSourceObject: {fileID: 0}
  m_PrefabInstance: {fileID: 0}
  m_PrefabAsset: {fileID: 0}
  m_GameObject: {fileID: 2496075780262929023}
  m_LocalRotation: {x: -0, y: -0, z: -0, w: 1}
  m_LocalPosition: {x: 0, y: 0, z: 0}
  m_LocalScale: {x: 1, y: 1, z: 1}
  m_Children:
  - {fileID: 7918755844175232647}
  - {fileID: 3206990847918725603}
  m_Father: {fileID: 2496075780881035214}
  m_RootOrder: 0
  m_LocalEulerAnglesHint: {x: 0, y: 0, z: 0}
--- !u!1 &2496075780881035212
GameObject:
  m_ObjectHideFlags: 0
  m_CorrespondingSourceObject: {fileID: 0}
  m_PrefabInstance: {fileID: 0}
  m_PrefabAsset: {fileID: 0}
  serializedVersion: 6
  m_Component:
  - component: {fileID: 2496075780881035214}
  - component: {fileID: 2496075780881035215}
  m_Layer: 0
  m_Name: Square_Obstacle
  m_TagString: Untagged
  m_Icon: {fileID: 0}
  m_NavMeshLayer: 0
  m_StaticEditorFlags: 0
  m_IsActive: 1
--- !u!4 &2496075780881035214
Transform:
  m_ObjectHideFlags: 0
  m_CorrespondingSourceObject: {fileID: 0}
  m_PrefabInstance: {fileID: 0}
  m_PrefabAsset: {fileID: 0}
  m_GameObject: {fileID: 2496075780881035212}
  m_LocalRotation: {x: 0, y: 0, z: 0, w: 1}
  m_LocalPosition: {x: 9.42, y: 0, z: 0}
  m_LocalScale: {x: 1, y: 1, z: 1}
  m_Children:
  - {fileID: 2496075780262929022}
  - {fileID: 2496075781595798980}
  - {fileID: 1336032791685413107}
  m_Father: {fileID: 0}
  m_RootOrder: 0
  m_LocalEulerAnglesHint: {x: 0, y: 0, z: 0}
--- !u!114 &2496075780881035215
MonoBehaviour:
  m_ObjectHideFlags: 0
  m_CorrespondingSourceObject: {fileID: 0}
  m_PrefabInstance: {fileID: 0}
  m_PrefabAsset: {fileID: 0}
  m_GameObject: {fileID: 2496075780881035212}
  m_Enabled: 1
  m_EditorHideFlags: 0
  m_Script: {fileID: 11500000, guid: 159ded995e1b54448ab3d91e1de46c64, type: 3}
  m_Name: 
  m_EditorClassIdentifier: 
  bottom: {fileID: 2496075780262929022}
  top: {fileID: 2496075781595798980}
  gapBounds: {x: 2, y: 4}
  shiftBounds: {x: -1, y: 4}
--- !u!1 &2496075781595798981
GameObject:
  m_ObjectHideFlags: 0
  m_CorrespondingSourceObject: {fileID: 0}
  m_PrefabInstance: {fileID: 0}
  m_PrefabAsset: {fileID: 0}
  serializedVersion: 6
  m_Component:
  - component: {fileID: 2496075781595798980}
  m_Layer: 0
  m_Name: TopParent
  m_TagString: Ground
  m_Icon: {fileID: 0}
  m_NavMeshLayer: 0
  m_StaticEditorFlags: 0
  m_IsActive: 1
--- !u!4 &2496075781595798980
Transform:
  m_ObjectHideFlags: 0
  m_CorrespondingSourceObject: {fileID: 0}
  m_PrefabInstance: {fileID: 0}
  m_PrefabAsset: {fileID: 0}
  m_GameObject: {fileID: 2496075781595798981}
  m_LocalRotation: {x: -0, y: -0, z: -0, w: 1}
  m_LocalPosition: {x: 0, y: 0, z: 0}
  m_LocalScale: {x: 1, y: 1, z: 1}
  m_Children:
  - {fileID: 4666356334998605484}
  m_Father: {fileID: 2496075780881035214}
  m_RootOrder: 1
  m_LocalEulerAnglesHint: {x: 0, y: 0, z: 0}
--- !u!1 &4769253687386088597
GameObject:
  m_ObjectHideFlags: 0
  m_CorrespondingSourceObject: {fileID: 0}
  m_PrefabInstance: {fileID: 0}
  m_PrefabAsset: {fileID: 0}
  serializedVersion: 6
  m_Component:
  - component: {fileID: 1336032791685413107}
  - component: {fileID: 1365041285275817718}
  m_Layer: 0
  m_Name: PointZone
  m_TagString: PointZone
  m_Icon: {fileID: 0}
  m_NavMeshLayer: 0
  m_StaticEditorFlags: 0
  m_IsActive: 1
--- !u!4 &1336032791685413107
Transform:
  m_ObjectHideFlags: 0
  m_CorrespondingSourceObject: {fileID: 0}
  m_PrefabInstance: {fileID: 0}
  m_PrefabAsset: {fileID: 0}
  m_GameObject: {fileID: 4769253687386088597}
  m_LocalRotation: {x: -0, y: -0, z: -0, w: 1}
  m_LocalPosition: {x: -0.04, y: 0.91, z: -1.4503083}
  m_LocalScale: {x: 2, y: 8, z: 1}
  m_Children: []
  m_Father: {fileID: 2496075780881035214}
  m_RootOrder: 2
  m_LocalEulerAnglesHint: {x: 0, y: 0, z: 0}
--- !u!61 &1365041285275817718
BoxCollider2D:
  m_ObjectHideFlags: 0
  m_CorrespondingSourceObject: {fileID: 0}
  m_PrefabInstance: {fileID: 0}
  m_PrefabAsset: {fileID: 0}
  m_GameObject: {fileID: 4769253687386088597}
  m_Enabled: 1
  m_Density: 1
  m_Material: {fileID: 0}
  m_IsTrigger: 1
  m_UsedByEffector: 0
  m_UsedByComposite: 0
  m_Offset: {x: 0, y: 0}
  m_SpriteTilingProperty:
    border: {x: 0, y: 0, z: 0, w: 0}
    pivot: {x: 0, y: 0}
    oldSize: {x: 0, y: 0}
    newSize: {x: 0, y: 0}
    adaptiveTilingThreshold: 0
    drawMode: 0
    adaptiveTiling: 0
  m_AutoTiling: 0
  serializedVersion: 2
  m_Size: {x: 1, y: 1}
  m_EdgeRadius: 0
--- !u!1001 &1273488826609975241
PrefabInstance:
  m_ObjectHideFlags: 0
  serializedVersion: 2
  m_Modification:
    m_TransformParent: {fileID: 2496075780262929022}
    m_Modifications:
    - target: {fileID: 638690721734956575, guid: 1b9cdacbeac2645d5b497fe8d8d0077d,
        type: 3}
      propertyPath: yPositionOffset.x
      value: 0
      objectReference: {fileID: 0}
    - target: {fileID: 638690721734956575, guid: 1b9cdacbeac2645d5b497fe8d8d0077d,
        type: 3}
      propertyPath: yPositionOffset.y
      value: 0
      objectReference: {fileID: 0}
    - target: {fileID: 918694725915217751, guid: 1b9cdacbeac2645d5b497fe8d8d0077d,
        type: 3}
      propertyPath: rotationBounds.x
      value: -15
      objectReference: {fileID: 0}
    - target: {fileID: 918694725915217751, guid: 1b9cdacbeac2645d5b497fe8d8d0077d,
        type: 3}
      propertyPath: rotationBounds.y
      value: 15
      objectReference: {fileID: 0}
    - target: {fileID: 6031447874973740113, guid: 1b9cdacbeac2645d5b497fe8d8d0077d,
        type: 3}
      propertyPath: m_SortingOrder
      value: 6
      objectReference: {fileID: 0}
    - target: {fileID: 7525088488471341714, guid: 1b9cdacbeac2645d5b497fe8d8d0077d,
        type: 3}
      propertyPath: m_LocalScale.x
      value: 0.95
      objectReference: {fileID: 0}
    - target: {fileID: 7525088488471341714, guid: 1b9cdacbeac2645d5b497fe8d8d0077d,
        type: 3}
      propertyPath: m_LocalScale.y
      value: 0.95
      objectReference: {fileID: 0}
    - target: {fileID: 8955765385200189769, guid: 1b9cdacbeac2645d5b497fe8d8d0077d,
        type: 3}
      propertyPath: m_SortingOrder
      value: 5
      objectReference: {fileID: 0}
    - target: {fileID: 8955765385200189771, guid: 1b9cdacbeac2645d5b497fe8d8d0077d,
        type: 3}
      propertyPath: m_Name
      value: Square_Platform
      objectReference: {fileID: 0}
    - target: {fileID: 8955765385200189774, guid: 1b9cdacbeac2645d5b497fe8d8d0077d,
        type: 3}
      propertyPath: m_RootOrder
      value: 0
      objectReference: {fileID: 0}
    - target: {fileID: 8955765385200189774, guid: 1b9cdacbeac2645d5b497fe8d8d0077d,
        type: 3}
      propertyPath: m_LocalScale.x
      value: 4
      objectReference: {fileID: 0}
    - target: {fileID: 8955765385200189774, guid: 1b9cdacbeac2645d5b497fe8d8d0077d,
        type: 3}
      propertyPath: m_LocalScale.y
      value: 4
      objectReference: {fileID: 0}
    - target: {fileID: 8955765385200189774, guid: 1b9cdacbeac2645d5b497fe8d8d0077d,
        type: 3}
      propertyPath: m_LocalPosition.x
      value: 0
      objectReference: {fileID: 0}
    - target: {fileID: 8955765385200189774, guid: 1b9cdacbeac2645d5b497fe8d8d0077d,
        type: 3}
      propertyPath: m_LocalPosition.y
      value: -2
      objectReference: {fileID: 0}
    - target: {fileID: 8955765385200189774, guid: 1b9cdacbeac2645d5b497fe8d8d0077d,
        type: 3}
      propertyPath: m_LocalPosition.z
      value: 0
      objectReference: {fileID: 0}
    - target: {fileID: 8955765385200189774, guid: 1b9cdacbeac2645d5b497fe8d8d0077d,
        type: 3}
      propertyPath: m_LocalRotation.w
      value: 1
      objectReference: {fileID: 0}
    - target: {fileID: 8955765385200189774, guid: 1b9cdacbeac2645d5b497fe8d8d0077d,
        type: 3}
      propertyPath: m_LocalRotation.x
      value: -0
      objectReference: {fileID: 0}
    - target: {fileID: 8955765385200189774, guid: 1b9cdacbeac2645d5b497fe8d8d0077d,
        type: 3}
      propertyPath: m_LocalRotation.y
      value: -0
      objectReference: {fileID: 0}
    - target: {fileID: 8955765385200189774, guid: 1b9cdacbeac2645d5b497fe8d8d0077d,
        type: 3}
      propertyPath: m_LocalRotation.z
      value: -0
      objectReference: {fileID: 0}
    - target: {fileID: 8955765385200189774, guid: 1b9cdacbeac2645d5b497fe8d8d0077d,
        type: 3}
      propertyPath: m_LocalEulerAnglesHint.x
      value: 0
      objectReference: {fileID: 0}
    - target: {fileID: 8955765385200189774, guid: 1b9cdacbeac2645d5b497fe8d8d0077d,
        type: 3}
      propertyPath: m_LocalEulerAnglesHint.y
      value: 0
      objectReference: {fileID: 0}
    - target: {fileID: 8955765385200189774, guid: 1b9cdacbeac2645d5b497fe8d8d0077d,
        type: 3}
      propertyPath: m_LocalEulerAnglesHint.z
      value: 0
      objectReference: {fileID: 0}
    m_RemovedComponents: []
  m_SourcePrefab: {fileID: 100100000, guid: 1b9cdacbeac2645d5b497fe8d8d0077d, type: 3}
--- !u!4 &7918755844175232647 stripped
Transform:
  m_CorrespondingSourceObject: {fileID: 8955765385200189774, guid: 1b9cdacbeac2645d5b497fe8d8d0077d,
    type: 3}
  m_PrefabInstance: {fileID: 1273488826609975241}
  m_PrefabAsset: {fileID: 0}
--- !u!1001 &4362720817182969826
PrefabInstance:
  m_ObjectHideFlags: 0
  serializedVersion: 2
  m_Modification:
    m_TransformParent: {fileID: 2496075781595798980}
    m_Modifications:
    - target: {fileID: 638690721734956575, guid: 1b9cdacbeac2645d5b497fe8d8d0077d,
        type: 3}
      propertyPath: yPositionOffset.x
      value: 0
      objectReference: {fileID: 0}
    - target: {fileID: 638690721734956575, guid: 1b9cdacbeac2645d5b497fe8d8d0077d,
        type: 3}
      propertyPath: yPositionOffset.y
      value: 0
      objectReference: {fileID: 0}
    - target: {fileID: 863830314308231333, guid: 1b9cdacbeac2645d5b497fe8d8d0077d,
        type: 3}
      propertyPath: m_IsTrigger
      value: 0
      objectReference: {fileID: 0}
    - target: {fileID: 918694725915217751, guid: 1b9cdacbeac2645d5b497fe8d8d0077d,
        type: 3}
      propertyPath: rotationBounds.x
      value: -15
      objectReference: {fileID: 0}
    - target: {fileID: 918694725915217751, guid: 1b9cdacbeac2645d5b497fe8d8d0077d,
        type: 3}
      propertyPath: rotationBounds.y
      value: 15
      objectReference: {fileID: 0}
    - target: {fileID: 6031447874973740113, guid: 1b9cdacbeac2645d5b497fe8d8d0077d,
        type: 3}
      propertyPath: m_SortingOrder
      value: 6
      objectReference: {fileID: 0}
    - target: {fileID: 7525088488471341714, guid: 1b9cdacbeac2645d5b497fe8d8d0077d,
        type: 3}
      propertyPath: m_LocalScale.x
      value: 0.95
      objectReference: {fileID: 0}
    - target: {fileID: 7525088488471341714, guid: 1b9cdacbeac2645d5b497fe8d8d0077d,
        type: 3}
      propertyPath: m_LocalScale.y
      value: 0.95
      objectReference: {fileID: 0}
    - target: {fileID: 8955765385200189769, guid: 1b9cdacbeac2645d5b497fe8d8d0077d,
        type: 3}
      propertyPath: m_SortingOrder
      value: 5
      objectReference: {fileID: 0}
    - target: {fileID: 8955765385200189771, guid: 1b9cdacbeac2645d5b497fe8d8d0077d,
        type: 3}
      propertyPath: m_Name
      value: Square_Platform
      objectReference: {fileID: 0}
    - target: {fileID: 8955765385200189774, guid: 1b9cdacbeac2645d5b497fe8d8d0077d,
        type: 3}
      propertyPath: m_RootOrder
      value: 0
      objectReference: {fileID: 0}
    - target: {fileID: 8955765385200189774, guid: 1b9cdacbeac2645d5b497fe8d8d0077d,
        type: 3}
      propertyPath: m_LocalScale.x
      value: 4
      objectReference: {fileID: 0}
    - target: {fileID: 8955765385200189774, guid: 1b9cdacbeac2645d5b497fe8d8d0077d,
        type: 3}
      propertyPath: m_LocalScale.y
      value: 8
      objectReference: {fileID: 0}
    - target: {fileID: 8955765385200189774, guid: 1b9cdacbeac2645d5b497fe8d8d0077d,
        type: 3}
      propertyPath: m_LocalPosition.x
      value: 0
      objectReference: {fileID: 0}
    - target: {fileID: 8955765385200189774, guid: 1b9cdacbeac2645d5b497fe8d8d0077d,
        type: 3}
      propertyPath: m_LocalPosition.y
      value: 3.8
      objectReference: {fileID: 0}
    - target: {fileID: 8955765385200189774, guid: 1b9cdacbeac2645d5b497fe8d8d0077d,
        type: 3}
      propertyPath: m_LocalPosition.z
      value: 0
      objectReference: {fileID: 0}
    - target: {fileID: 8955765385200189774, guid: 1b9cdacbeac2645d5b497fe8d8d0077d,
        type: 3}
      propertyPath: m_LocalRotation.w
      value: 1
      objectReference: {fileID: 0}
    - target: {fileID: 8955765385200189774, guid: 1b9cdacbeac2645d5b497fe8d8d0077d,
        type: 3}
      propertyPath: m_LocalRotation.x
      value: 0
      objectReference: {fileID: 0}
    - target: {fileID: 8955765385200189774, guid: 1b9cdacbeac2645d5b497fe8d8d0077d,
        type: 3}
      propertyPath: m_LocalRotation.y
      value: 0
      objectReference: {fileID: 0}
    - target: {fileID: 8955765385200189774, guid: 1b9cdacbeac2645d5b497fe8d8d0077d,
        type: 3}
      propertyPath: m_LocalRotation.z
      value: 0
      objectReference: {fileID: 0}
    - target: {fileID: 8955765385200189774, guid: 1b9cdacbeac2645d5b497fe8d8d0077d,
        type: 3}
      propertyPath: m_LocalEulerAnglesHint.x
      value: 0
      objectReference: {fileID: 0}
    - target: {fileID: 8955765385200189774, guid: 1b9cdacbeac2645d5b497fe8d8d0077d,
        type: 3}
      propertyPath: m_LocalEulerAnglesHint.y
      value: 0
      objectReference: {fileID: 0}
    - target: {fileID: 8955765385200189774, guid: 1b9cdacbeac2645d5b497fe8d8d0077d,
        type: 3}
      propertyPath: m_LocalEulerAnglesHint.z
      value: 0
      objectReference: {fileID: 0}
    m_RemovedComponents: []
  m_SourcePrefab: {fileID: 100100000, guid: 1b9cdacbeac2645d5b497fe8d8d0077d, type: 3}
--- !u!4 &4666356334998605484 stripped
Transform:
  m_CorrespondingSourceObject: {fileID: 8955765385200189774, guid: 1b9cdacbeac2645d5b497fe8d8d0077d,
    type: 3}
  m_PrefabInstance: {fileID: 4362720817182969826}
  m_PrefabAsset: {fileID: 0}
--- !u!1001 &5821113643341125805
PrefabInstance:
  m_ObjectHideFlags: 0
  serializedVersion: 2
  m_Modification:
    m_TransformParent: {fileID: 2496075780262929022}
    m_Modifications:
    - target: {fileID: 638690721734956575, guid: 1b9cdacbeac2645d5b497fe8d8d0077d,
        type: 3}
      propertyPath: rotationBounds.x
      value: -35
      objectReference: {fileID: 0}
    - target: {fileID: 638690721734956575, guid: 1b9cdacbeac2645d5b497fe8d8d0077d,
        type: 3}
      propertyPath: rotationBounds.y
      value: 35
      objectReference: {fileID: 0}
    - target: {fileID: 638690721734956575, guid: 1b9cdacbeac2645d5b497fe8d8d0077d,
        type: 3}
      propertyPath: yPositionOffset.x
      value: 0
      objectReference: {fileID: 0}
    - target: {fileID: 638690721734956575, guid: 1b9cdacbeac2645d5b497fe8d8d0077d,
        type: 3}
      propertyPath: yPositionOffset.y
      value: 0
      objectReference: {fileID: 0}
    - target: {fileID: 918694725915217751, guid: 1b9cdacbeac2645d5b497fe8d8d0077d,
        type: 3}
      propertyPath: rotationBounds.x
      value: -15
      objectReference: {fileID: 0}
    - target: {fileID: 918694725915217751, guid: 1b9cdacbeac2645d5b497fe8d8d0077d,
        type: 3}
      propertyPath: rotationBounds.y
      value: 15
      objectReference: {fileID: 0}
    - target: {fileID: 7525088488471341714, guid: 1b9cdacbeac2645d5b497fe8d8d0077d,
        type: 3}
      propertyPath: m_LocalScale.x
      value: 0.95
      objectReference: {fileID: 0}
    - target: {fileID: 7525088488471341714, guid: 1b9cdacbeac2645d5b497fe8d8d0077d,
        type: 3}
      propertyPath: m_LocalScale.y
      value: 0.95
      objectReference: {fileID: 0}
    - target: {fileID: 8955765385200189771, guid: 1b9cdacbeac2645d5b497fe8d8d0077d,
        type: 3}
      propertyPath: m_Name
      value: Square_Platform (1)
      objectReference: {fileID: 0}
    - target: {fileID: 8955765385200189774, guid: 1b9cdacbeac2645d5b497fe8d8d0077d,
        type: 3}
      propertyPath: m_RootOrder
      value: 1
      objectReference: {fileID: 0}
    - target: {fileID: 8955765385200189774, guid: 1b9cdacbeac2645d5b497fe8d8d0077d,
        type: 3}
      propertyPath: m_LocalScale.x
      value: 4
      objectReference: {fileID: 0}
    - target: {fileID: 8955765385200189774, guid: 1b9cdacbeac2645d5b497fe8d8d0077d,
        type: 3}
      propertyPath: m_LocalScale.y
      value: 4
      objectReference: {fileID: 0}
    - target: {fileID: 8955765385200189774, guid: 1b9cdacbeac2645d5b497fe8d8d0077d,
        type: 3}
      propertyPath: m_LocalPosition.x
      value: 0
      objectReference: {fileID: 0}
    - target: {fileID: 8955765385200189774, guid: 1b9cdacbeac2645d5b497fe8d8d0077d,
        type: 3}
      propertyPath: m_LocalPosition.y
      value: -5.8
      objectReference: {fileID: 0}
    - target: {fileID: 8955765385200189774, guid: 1b9cdacbeac2645d5b497fe8d8d0077d,
        type: 3}
      propertyPath: m_LocalPosition.z
      value: 0
      objectReference: {fileID: 0}
    - target: {fileID: 8955765385200189774, guid: 1b9cdacbeac2645d5b497fe8d8d0077d,
        type: 3}
      propertyPath: m_LocalRotation.w
      value: 1
      objectReference: {fileID: 0}
    - target: {fileID: 8955765385200189774, guid: 1b9cdacbeac2645d5b497fe8d8d0077d,
        type: 3}
      propertyPath: m_LocalRotation.x
      value: -0
      objectReference: {fileID: 0}
    - target: {fileID: 8955765385200189774, guid: 1b9cdacbeac2645d5b497fe8d8d0077d,
        type: 3}
      propertyPath: m_LocalRotation.y
      value: -0
      objectReference: {fileID: 0}
    - target: {fileID: 8955765385200189774, guid: 1b9cdacbeac2645d5b497fe8d8d0077d,
        type: 3}
      propertyPath: m_LocalRotation.z
      value: -0
      objectReference: {fileID: 0}
    - target: {fileID: 8955765385200189774, guid: 1b9cdacbeac2645d5b497fe8d8d0077d,
        type: 3}
      propertyPath: m_LocalEulerAnglesHint.x
      value: 0
      objectReference: {fileID: 0}
    - target: {fileID: 8955765385200189774, guid: 1b9cdacbeac2645d5b497fe8d8d0077d,
        type: 3}
      propertyPath: m_LocalEulerAnglesHint.y
      value: 0
      objectReference: {fileID: 0}
    - target: {fileID: 8955765385200189774, guid: 1b9cdacbeac2645d5b497fe8d8d0077d,
        type: 3}
      propertyPath: m_LocalEulerAnglesHint.z
      value: 0
      objectReference: {fileID: 0}
    m_RemovedComponents:
    - {fileID: 863830314308231333, guid: 1b9cdacbeac2645d5b497fe8d8d0077d, type: 3}
  m_SourcePrefab: {fileID: 100100000, guid: 1b9cdacbeac2645d5b497fe8d8d0077d, type: 3}
--- !u!4 &3206990847918725603 stripped
Transform:
  m_CorrespondingSourceObject: {fileID: 8955765385200189774, guid: 1b9cdacbeac2645d5b497fe8d8d0077d,
    type: 3}
  m_PrefabInstance: {fileID: 5821113643341125805}
  m_PrefabAsset: {fileID: 0}
